species,mode,age,primary_model_id,lateral_model_id,crown_model_id
soybean,cylinder,"2, 3, 4, 5, 6, 7, 8",/workspace/models/soybean/primary/221003_111420.multi_instance.n=1389,/workspace/models/soybean/lateral/lateral_root_221006_172103.multi_instance.n=482,
canola,cylinder,"2, 3, 4, 5, 6, 7, 8, 9, 10, 11, 12, 13",/workspace/models/canola_pennycress_arabidopsis/primary/240130_075952.multi_instance.n=576,/workspace/models/canola/lateral/220922_115048.multi_instance.n=390,
pennycress,cylinder,"2, 3, 4, 5, 6, 7, 8, 9, 10, 11, 12, 13, 14",/workspace/models/canola_pennycress_arabidopsis/primary/240130_075952.multi_instance.n=576,/workspace/models/canola_pennycress_arabidopsis/lateral/240130_140452.multi_instance.n=337,
arabidopsis,multiplant cylinder,"2, 3, 4, 5, 6, 7, 8, 9, 10, 11, 12, 13, 14",/workspace/models/canola_pennycress_arabidopsis/primary/240130_075952.multi_instance.n=576,/workspace/models/canola_pennycress_arabidopsis/lateral/240130_140452.multi_instance.n=337,
arabidopsis,cylinder,"2, 3, 4, 5, 6, 7, 8, 9, 10, 11, 12, 13, 14",/workspace/models/canola_pennycress_arabidopsis/primary/240130_075952.multi_instance.n=576,/workspace/models/canola_pennycress_arabidopsis/lateral/240130_140452.multi_instance.n=337,
arabidopsis,plate,"7, 8, 9, 10, 11, 12, 13, 14",/workspace/models/arabidopsis_plates/primary,/workspace/models/arabidopsis_plates/lateral,
rice,cylinder,"2, 3, 4, 5",/workspace/models/rice/younger/primary/230104_182346.multi_instance.n=720,,/workspace/models/rice/younger/crown/220821_163331.multi_instance.n=867
rice,cylinder,"6, 7, 8, 9, 10",,,/workspace/models/rice/older/crown/221208_113552.multi_instance.n=574
